…
D SELECT COUNT(*) FROM 'StockEtablissement_utf8.csv';
100% ▕████████████████████████████████████████████████████████████▏
┌──────────────┐
│ count_star() │
│    int64     │
├──────────────┤
│     38910206 │
└──────────────┘
Run Time (s): real 5.606 user 22.982446 sys 3.417665

# Notre fichier contient 53 colonnes. La commande DESCRIBE nous donne le format des colonnes inféré par DuckDB.

D DESCRIBE FROM 'StockEtablissement_utf8.csv';
┌────────────────────────────────────────────────┬─────────────┬─────────┬─────────┬─────────┬─────────┐
│                  column_name                   │ column_type │  null   │   key   │ default │  extra  │
│                    varchar                     │   varchar   │ varchar │ varchar │ varchar │ varchar │
├────────────────────────────────────────────────┼─────────────┼─────────┼─────────┼─────────┼─────────┤
│ siren                                          │ VARCHAR     │ YES     │         │         │         │
│ nic                                            │ VARCHAR     │ YES     │         │         │         │
│ siret                                          │ VARCHAR     │ YES     │         │         │         │
│ statutDiffusionEtablissement                   │ VARCHAR     │ YES     │         │         │         │
│ dateCreationEtablissement                      │ DATE        │ YES     │         │         │         │
│ trancheEffectifsEtablissement                  │ VARCHAR     │ YES     │         │         │         │
│ anneeEffectifsEtablissement                    │ BIGINT      │ YES     │         │         │         │
│ activitePrincipaleRegistreMetiersEtablissement │ VARCHAR     │ YES     │         │         │         │
│ dateDernierTraitementEtablissement             │ TIMESTAMP   │ YES     │         │         │         │
│ etablissementSiege                             │ BOOLEAN     │ YES     │         │         │         │
│ nombrePeriodesEtablissement                    │ BIGINT      │ YES     │         │         │         │
│ complementAdresseEtablissement                 │ VARCHAR     │ YES     │         │         │         │
│ numeroVoieEtablissement                        │ VARCHAR     │ YES     │         │         │         │
│ indiceRepetitionEtablissement                  │ VARCHAR     │ YES     │         │         │         │
│ dernierNumeroVoieEtablissement                 │ VARCHAR     │ YES     │         │         │         │
│ indiceRepetitionDernierNumeroVoieEtablissement │ VARCHAR     │ YES     │         │         │         │
│ typeVoieEtablissement                          │ VARCHAR     │ YES     │         │         │         │
│ libelleVoieEtablissement                       │ VARCHAR     │ YES     │         │         │         │
│ codePostalEtablissement                        │ VARCHAR     │ YES     │         │         │         │
│ libelleCommuneEtablissement                    │ VARCHAR     │ YES     │         │         │         │
│           ·                                    │    ·        │  ·      │    ·    │    ·    │    ·    │
│           ·                                    │    ·        │  ·      │    ·    │    ·    │    ·    │
│           ·                                    │    ·        │  ·      │    ·    │    ·    │    ·    │
│ typeVoie2Etablissement                         │ VARCHAR     │ YES     │         │         │         │
│ libelleVoie2Etablissement                      │ VARCHAR     │ YES     │         │         │         │
│ codePostal2Etablissement                       │ VARCHAR     │ YES     │         │         │         │
│ libelleCommune2Etablissement                   │ VARCHAR     │ YES     │         │         │         │
│ libelleCommuneEtranger2Etablissement           │ VARCHAR     │ YES     │         │         │         │
│ distributionSpeciale2Etablissement             │ VARCHAR     │ YES     │         │         │         │
│ codeCommune2Etablissement                      │ VARCHAR     │ YES     │         │         │         │
│ codeCedex2Etablissement                        │ VARCHAR     │ YES     │         │         │         │
│ libelleCedex2Etablissement                     │ VARCHAR     │ YES     │         │         │         │
│ codePaysEtranger2Etablissement                 │ VARCHAR     │ YES     │         │         │         │
│ libellePaysEtranger2Etablissement              │ VARCHAR     │ YES     │         │         │         │
│ dateDebut                                      │ DATE        │ YES     │         │         │         │
│ etatAdministratifEtablissement                 │ VARCHAR     │ YES     │         │         │         │
│ enseigne1Etablissement                         │ VARCHAR     │ YES     │         │         │         │
│ enseigne2Etablissement                         │ VARCHAR     │ YES     │         │         │         │
│ enseigne3Etablissement                         │ VARCHAR     │ YES     │         │         │         │
│ denominationUsuelleEtablissement               │ VARCHAR     │ YES     │         │         │         │
│ activitePrincipaleEtablissement                │ VARCHAR     │ YES     │         │         │         │
│ nomenclatureActivitePrincipaleEtablissement    │ VARCHAR     │ YES     │         │         │         │
│ caractereEmployeurEtablissement                │ VARCHAR     │ YES     │         │         │         │
├────────────────────────────────────────────────┴─────────────┴─────────┴─────────┴─────────┴─────────┤
│ 53 rows (40 shown)                                                                         6 columns │
└──────────────────────────────────────────────────────────────────────────────────────────────────────┘
…
